-------------------------------------------------------------------------------
Test set: com.udara.ServerAppTest
-------------------------------------------------------------------------------
Tests run: 1, Failures: 0, Errors: 0, Skipped: 0, Time elapsed: 0.038 s - in com.udara.ServerAppTest
